{
  "version": "0.3.14-fixed",
  "steps": [
    {
      "tag": "UpdateField",
      "model": "CartItem",
      "field": "order",
      "arity": "Required"
    },
    {
      "tag": "UpdateField",
      "model": "CartItem",
      "field": "orderId",
      "arity": "Required"
    },
    {
      "tag": "UpdateField",
      "model": "CartItem",
      "field": "product",
      "arity": "Required"
    },
    {
      "tag": "UpdateField",
      "model": "CartItem",
      "field": "productId",
      "arity": "Required"
    }
  ]
}