{
  "version": "0.3.14-fixed",
  "steps": [
    {
      "tag": "CreateDirective",
      "location": {
        "path": {
          "tag": "Field",
          "model": "Shop",
          "field": "url"
        },
        "directive": "unique"
      }
    }
  ]
}